{
    "servers": {
        "bash": {
            "command": ["bash-language-server", "start"],
            "root": "",
            "url": "https://github.com/bash-lsp/bash-language-server",
            "highlightingModeRegex": "^Bash$"
        },
        "bibtex": {
            "use": "latex",
            "highlightingModeRegex": "^BibTeX$"
        },
        "c": {
            "command": ["clangd", "-log=error", "--background-index", "--limit-results=500", "--completion-style=bundled"],
            "commandDebug": ["clangd", "-log=verbose", "--background-index"],
            "url": "https://clang.llvm.org/extra/clangd/",
            "highlightingModeRegex": "^(C|ANSI C89|Objective-C)$"
        },
        "css": {
            "command": ["vscode-css-languageserver", "--stdio"],
            "url": "https://github.com/Microsoft/vscode/tree/main/extensions/css-language-features/server",
            "highlightingModeRegex": "^CSS$"
        },
        "cpp": {
            "use": "c",
            "highlightingModeRegex": "^(C\\+\\+|ISO C\\+\\+|Objective-C\\+\\+)$"
        },
        "c-sharp": {
            "command": ["omnisharp", "-lsp"],
            "commandDebug": ["omnisharp", "--debug", "--verbose"],
            "rootIndicationFilePatterns": ["*.sln", "*.csproj"],
            "url": "https://github.com/OmniSharp/omnisharp-roslyn",
            "highlightingModeRegex": "^C#$"
        },
        "d": {
            "command": ["serve-d"],
            "rootIndicationFileNames": ["dub.json"],
            "url": "https://github.com/Pure-D/serve-d",
            "highlightingModeRegex": "^D$"
        },
        "dart": {
            "command": ["dart", "language-server"],
            "url": "https://github.com/dart-lang/sdk/blob/master/pkg/analysis_server/tool/lsp_spec",
            "highlightingModeRegex": "^Dart$",
            "initializationOptions": {
                "onlyAnalyzeProjectsWithOpenFiles": true
            }
        },
        "docker": {
            "command": ["docker-langserver", "--stdio"],
            "url": "https://github.com/rcjsuen/dockerfile-language-server-nodejs",
            "highlightingModeRegex": "^Dockerfile$"
        },
        "elm": {
            "command": ["elm-language-server"],
            "rootIndicationFileNames": ["elm.json"],
            "url": "https://github.com/elm-tooling/elm-language-server",
            "highlightingModeRegex": "^Elm$"
        },
        "fortran": {
            "command": ["fortls"],
            "rootIndicationFileNames": [".fortls"],
            "url": "https://github.com/hansec/fortran-language-server",
            "highlightingModeRegex": "^Fortran.*$"
        },
        "fsharp": {
            "command": ["fsautocomplete", "--adaptive-lsp-server-enabled"],
            "url": "https://github.com/fsharp/FsAutoComplete",
            "highlightingModeRegex": "^FSharp$"
        },
        "glsl": {
            "command": ["glslls", "--stdin"],
            "root": "",
            "url": "https://github.com/svenstaro/glsl-language-server",
            "highlightingModeRegex": "^GLSL$"
        },
        "go": {
            "command": ["gopls"],
            "commandDebug": ["gopls", "serve", "-rpc.trace"],
            "path": ["%{ENV:GOPATH}/bin","%{ENV:HOME}/go/bin", "%{ENV:USERPROFILE}/go/bin"],
            "rootIndicationFileNames": ["go.mod"],
            "url": "golang.org/x/tools/gopls",
            "highlightingModeRegex": "^Go$"
        },
        "godot": {
            "command": ["nc", "127.0.0.1", "6005"],
            "url": "https://godotengine.org/",
            "highlightingModeRegex": "^Godot$"
        },
        "haskell": {
            "command": ["haskell-language-server-wrapper", "--lsp"],
            "rootIndicationFileNames": ["*.cabal", "stack.yaml", "cabal.project", "package.yaml"],
            "url": "https://github.com/haskell/haskell-language-server",
            "highlightingModeRegex": "^Haskell$"
        },
        "html": {
            "command": ["vscode-html-languageserver", "--stdio"],
            "url": "https://github.com/Microsoft/vscode/tree/main/extensions/html-language-features/server",
            "highlightingModeRegex": "^HTML$"
        },
        "javascript": {
            "command": ["typescript-language-server", "--stdio"],
            "rootIndicationFileNames": ["package.json", "package-lock.json"],
            "url": "https://github.com/theia-ide/typescript-language-server",
            "highlightingModeRegex": "^JavaScript.*$",
            "documentLanguageId": false
        },
        "json": {
            "command": ["vscode-json-languageserver", "--stdio"],
            "url": "https://github.com/microsoft/vscode/tree/main/extensions/json-language-features/server",
            "highlightingModeRegex": "^JSON$"
        },
        "kotlin": {
            "command": ["kotlin-language-server"],
            "root": ".",
            "url": "https://github.com/fwcd/kotlin-language-server",
            "highlightingModeRegex": "^Kotlin$"
        },
        "latex": {
            "command": ["texlab"],
            "url": "https://texlab.netlify.com/",
            "highlightingModeRegex": "^LaTeX$"
        },
        "lua": {
            "command": ["lua-language-server"],
            "url": "https://github.com/sumneko/lua-language-server",
            "highlightingModeRegex": "^Lua$"
        },
        "nim": {
            "command": ["nimlsp"],
            "path": ["%{ENV:HOME}/.nimble/bin", "%{ENV:USERPROFILE}/.nimble/bin"],
            "url": "https://github.com/PMunch/nimlsp",
            "highlightingModeRegex": "^Nim$"
        },
        "ocaml": {
            "command": ["ocamllsp"],
            "url": "https://github.com/ocaml/ocaml-lsp",
            "highlightingModeRegex": "^Objective Caml.*$"
        },
        "openscad": {
            "command": ["openscad-lsp", "--stdio"],
            "path": ["%{ENV:CARGO_HOME}/bin", "%{ENV:HOME}/.cargo/bin", "%{ENV:USERPROFILE}/.cargo/bin"],
            "url": "https://github.com/Leathong/openscad-LSP",
            "highlightingModeRegex": "^OpenSCAD$"
        },
        "perl": {
            "command": ["perl", "-MPerl::LanguageServer", "-e", "Perl::LanguageServer::run", "--"],
            "commandDebug": ["perl", "-MPerl::LanguageServer", "-e", "Perl::LanguageServer::run", "--", "--debug"],
            "url": "https://github.com/richterger/Perl-LanguageServer",
            "highlightingModeRegex": "^Perl$"
        },
        "python": {
            "command": ["pylsp", "--check-parent-process"],
            "url": "https://github.com/python-lsp/python-lsp-server",
            "highlightingModeRegex": "^Python$"
        },
        "qml": {
            "command": ["qmlls6"],
            "url": "https://code.qt.io/cgit/qt/qtdeclarative.git/tree/src/qmlls",
            "highlightingModeRegex": "^Qml$"
        },
        "r": {
            "command": ["R", "--slave", "-e", "languageserver::run()"],
            "url": "https://github.com/REditorSupport/languageserver",
            "highlightingModeRegex": "^R Script$"
        },
        "racket": {
            "command": ["racket","-l","racket-langserver"],
            "rootIndicationFileNames": ["info.rkt"],
            "url": "https://github.com/jeapostrophe/racket-langserver",
            "highlightingModeRegex": "^Racket$"
        },
        "rst": {
            "command": ["python", "-m", "esbonio"],
            "initializationOptions": {
                "server": {
                    "completion": {
                        "preferredInsertBehavior": "insert"
                    }
                }
            },
            "url": "https://github.com/swyddfa/esbonio",
            "rootIndicationFileNames": ["conf.py"],
            "highlightingModeRegex": "^reStructuredText$"
        },
        "ruby": {
            "command": ["solargraph", "stdio"],
            "rootIndicationFileNames": ["Gemfile", "Gemfile.lock", "gems.rb", "gems.lock", "Rakefile"],
            "url": "https://solargraph.org",
            "highlightingModeRegex": "^Ruby$"
        },
        "rust": {
            "command": ["rust-analyzer"],
            "path": ["%{ENV:CARGO_HOME}/bin", "%{ENV:HOME}/.cargo/bin", "%{ENV:USERPROFILE}/.cargo/bin"],
            "rootIndicationFileNames": ["Cargo.lock", "Cargo.toml"],
            "url": "https://rust-analyzer.github.io",
            "highlightingModeRegex": "^Rust$"
        },
        "scala": {
            "command": ["metals"],
            "rootIndicationFileNames": ["build.sbt"],
            "url": "https://scalameta.org/metals/",
            "highlightingModeRegex": "^Scala$"
        },
        "terraform": {
            "command": ["terraform-ls", "serve"],
            "url": "https://github.com/hashicorp/terraform-ls",
            "highlightingModeRegex": "^Terraform$"
        },
        "typescript": {
            "use": "javascript",
            "highlightingModeRegex": "^TypeScript.*$",
            "documentLanguageId": false
        },
        "vala": {
            "command": ["vala-language-server"],
            "url": "https://github.com/Prince781/vala-language-server",
            "highlightingModeRegex": "^Vala$"
        },
        "yaml": {
            "command": ["yaml-language-server", "--stdio"],
            "url": "https://github.com/redhat-developer/yaml-language-server",
            "highlightingModeRegex": "^YAML$"
        },
        "zig": {
            "command": ["zls"],
            "url": "https://github.com/zigtools/zls",
            "highlightingModeRegex": "^Zig$"
        }
    }
}
